{
    "type":"object",
    "$schema": "http://json-schema.org/draft-03/schema",
    "id": "http://jsonschema.net",
    "required":false,
    "properties":{
        "bank_account": {
            "type":"object",
            "id": "http://jsonschema.net/bank_account",
            "required":false,
            "properties":{
                "AccountNumber": {
                    "type":"string",
                    "id": "http://jsonschema.net/bank_account/AccountNumber",
                    "required":true
                },
                "OwnerAddress": {
                    "type":"string",
                    "id": "http://jsonschema.net/bank_account/OwnerAddress",
                    "required":true
                },
                "OwnerName": {
                    "type":"string",
                    "id": "http://jsonschema.net/bank_account/OwnerName",
                    "required":true
                },
                "SortCode": {
                    "type":"string",
                    "id": "http://jsonschema.net/bank_account/SortCode",
                    "required":true
                },
                "Type": {
                    "type":"string",
                    "id": "http://jsonschema.net/bank_account/Type",
                    "required":true
                }
            }
        }
    }
}
