{
    "type": "object",
    "$schema": "http://json-schema.org/draft-03/schema",
    "id": "http://jsonschema.net",
    "required": true,
    "properties":{
        "Alias": {
            "type": "string",
            "id": "http://jsonschema.net/Alias",
            "required": true
        },
        "Id": {
            "type": "string",
            "id": "http://jsonschema.net/Id",
            "required": true
        },
        "UserId": {
            "type": "string",
            "id": "http://jsonschema.net/UserId",
            "required": true
        },
        "CardProvider": {
            "type": "string",
            "id": "http://jsonschema.net/CardProvider",
            "required": true
        },
        "ExpirationDate": {
            "type": "string",
            "id": "http://jsonschema.net/ExpirationDate",
            "required": true
        }
    }
}
