{
        "requires_authentication": true,
        "mangopay_callback_url": "http://api-dev.farmdrop.co.uk/api/v1/payments#callback",
        "password_reset_url": "http://0.0.0.0:9000/#/forgotten-password?reset_token=",
        "confirmation_url": "http://0.0.0.0:9000/#/confirm?confirmation_token=",
        "farmdrop_www_url": "http://0.0.0.0:9000",
        "dashboard_your_producers_www_url": "http://0.0.0.0:9000/#/keeper/dashboard?section=your-producers&drop_id=",
        "from_keeper_name": "Hannah and the FarmDrop Team",
        "from_keeper_email": "hannah@farmdrop.co.uk",
        "from_producer_name": "Jaks and the FarmDrop Team",
        "from_producer_email": "jaks@farmdrop.co.uk",
        "from_member_name": "The FarmDrop Team",
        "from_member_email": "hello@farmdrop.co.uk",
        "from_orders_name": "FarmDrop orders",
        "from_orders_email": "orders@farmdrop.co.uk",
        "enable_development_mode": true,
        "enable_future_features": true,
        "min_drop_construction_weeks": 8,
        "max_drop_construction_weeks": 10,
        "drop_construction_deadline_offset_hours": 24,
        "initial_number_of_drop_events_weeks": 10,
        "required_number_of_drop_producers": 2,
        "drop_event_product_reminder_hours": 8,
        "drop_event_open_window_days": 7,
        "drop_event_cutoff_reminder_hours": 12,
        "drop_event_confirmation_window_hours": 12,
        "drop_event_harvest_window_days": 3,
        "drop_event_collection_window_hours": 2,
        "drop_event_refund_window_hours": 48,
        "drop_event_refunds_to_reconciliation_window_hours": 12,
        "drop_event_settlement_window_hours": 4,
        "membership_required_london": 100,
        "membership_required_rural": 40,
        "membership_required_urban": 60,
        "membership_required_private": 10,
        "keeper_vat_rate": 0.2
}
