{"type": "object", "$schema": "http://json-schema.org/draft-03/schema", "id": "http://jsonschema.net", "required": false, "properties": {
    "drop": {
        "type": "object",
        "id": "http://jsonschema.net/drop",
        "required": false,
        "properties": {
            "id": {
                "type": "number",
                "id": "http://jsonschema.net/drop/id",
                "required": false
            },
            "properties": {
                "type": "object",
                "id": "http://jsonschema.net/drop/properties",
                "required": false,
                "properties": {
                    "drop_type": {
                        "type": "string",
                        "id": "http://jsonschema.net/drop/properties/drop_type",
                        "required": false
                    },
                    "first_drop_date": {
                        "type": "string",
                        "id": "http://jsonschema.net/drop/properties/first_drop_date",
                        "required": false
                    },
                    "tagline": {
                        "type": "string",
                        "id": "http://jsonschema.net/drop/properties/tagline",
                        "required": false
                    }
                }
            },
            "venue_address_attributes": {
                "type": "object",
                "id": "http://jsonschema.net/drop/venue_address_attributes",
                "required": false,
                "properties": {
                    "address1": {
                        "type": "string",
                        "id": "http://jsonschema.net/drop/venue_address_attributes/address1",
                        "required": false
                    },
                    "address2": {
                        "type": "string",
                        "id": "http://jsonschema.net/drop/venue_address_attributes/address2",
                        "required": false
                    },
                    "city": {
                        "type": "string",
                        "id": "http://jsonschema.net/drop/venue_address_attributes/city",
                        "required": false
                    },
                    "coordinates": {
                        "type": "string",
                        "id": "http://jsonschema.net/drop/venue_address_attributes/coordinates",
                        "required": false
                    },
                    "id": {
                        "type": "number",
                        "id": "http://jsonschema.net/drop/venue_address_attributes/id",
                        "required": false
                    },
                    "zipcode": {
                        "type": "string",
                        "id": "http://jsonschema.net/drop/venue_address_attributes/zipcode",
                        "required": false
                    }
                }
            }
        }
    }
}}