{
    "type":"object",
    "$schema": "http://json-schema.org/draft-03/schema",
    "id": "http://jsonschema.net",
    "required":false,
    "properties":{
        "drop": {
            "type":"object",
            "id": "http://jsonschema.net/drop",
            "required":true,
            "properties":{
                "id": {
                    "type":"number",
                    "id": "http://jsonschema.net/drop/id",
                    "required":true
                },
                "properties": {
                    "type":"object",
                    "id": "http://jsonschema.net/drop/properties",
                    "required":true,
                    "properties":{
                        "drop_type": {
                            "type":"string",
                            "id": "http://jsonschema.net/drop/properties/drop_type",
                            "required":true
                        },
                        "first_drop_date": {
                            "type":"string",
                            "id": "http://jsonschema.net/drop/properties/first_drop_date",
                            "required":true
                        },
                        "tagline": {
                            "type":"string",
                            "id": "http://jsonschema.net/drop/properties/tagline",
                            "required":false
                        }
                    }
                }
            }
        }
    }
}
