{

    "business_details": {
	"company_name": "Cowper Burgers",
	"phone": "07799692434",
	"business": {
	    "zipcode": "SW66LN",
	    "address1": "2 Crabtree Lane",
	    "city": "London"
	},
	"job_title": "I own the Farm",
	"why_would_you_be_good_at_farmdrop": "I sell pigs, lots of pigs",
	"farm_size": "90",
	"vehicle": "I have access to a vehicle",
	"where_did_you_hear_about_us": "Via an online ad",
	"authority": "RAH RAH RAH RHA",
	"foodHygieneCertificate": {
	    "id": 119,
	    "user_id": null,
	    "producer_id": 56,
	    "keeper_id": 0,
	    "properties": {
		"key": "/documents/816e6a9c-920c-4334-9574-03a7a3c28f76/photo.JPG",
		"etag": "\"38965eec71aaac02e4b95080188dc842\"",
		"name": "photo.JPG",
		"uuid": "816e6a9c-920c-4334-9574-03a7a3c28f76",
		"action": "create",
		"bucket": "farmdrop-v4-api-staging",
		"format": "json",
		"keeper_id": "null",
		"controller": "spree/api/v1/documents",
		"expiryDate": "Wed Mar 26 2014 00:00:00 GMT+0000 (GMT)",
		"producer_id": "56"
	    }
	},
	"haccp": {
	    "id": 120,
	    "user_id": null,
	    "producer_id": 56,
	    "keeper_id": 0,
	    "properties": {
		"key": "/documents/ee70b4cb-63e5-4cdb-a9a4-3ad06058d98e/rupert-selfie.jpg",
		"etag": "\"7cdb528fb5b60b7e4dfa3da1ffbb4b10\"",
		"name": "rupert-selfie.jpg",
		"uuid": "ee70b4cb-63e5-4cdb-a9a4-3ad06058d98e",
		"action": "create",
		"bucket": "farmdrop-v4-api-staging",
		"format": "json",
		"keeper_id": "null",
		"controller": "spree/api/v1/documents",
		"expiryDate": "Mon Mar 31 2014 00:00:00 GMT+0100 (BST)",
		"producer_id": "56"
	    }
	},
	"joint_liability_insurance": "yes",
	"joinInsuranceCertificate": {
	    "id": 121,
	    "user_id": null,
	    "producer_id": 56,
	    "keeper_id": 0,
	    "properties": {
		"key": "/documents/14d9bd88-d414-43b5-b661-a6e0bf1a6216/profile.jpeg",
		"etag": "\"1cec04bd7878bda358aab88bdd3fc6d1\"",
		"name": "profile.jpeg",
		"uuid": "14d9bd88-d414-43b5-b661-a6e0bf1a6216",
		"action": "create",
		"bucket": "farmdrop-v4-api-staging",
		"format": "json",
		"keeper_id": "null",
		"controller": "spree/api/v1/documents",
		"expiryDate": "Mon Mar 31 2014 00:00:00 GMT+0100 (BST)",
		"producer_id": "56"
	    }
	},
	"certification": "Organic Food Federation",
	"organicCertification": {
	    "id": 123,
	    "user_id": null,
	    "producer_id": 56,
	    "keeper_id": 0,
	    "properties": {
		"key": "/documents/9c4922ee-2f74-481f-b564-e8ca941e0568/John Lewis.pdf",
		"etag": "\"02f761948a7cf7587d6829475d99e316\"",
		"name": "John Lewis.pdf",
		"uuid": "9c4922ee-2f74-481f-b564-e8ca941e0568",
		"action": "create",
		"bucket": "farmdrop-v4-api-staging",
		"format": "json",
		"keeper_id": "null",
		"controller": "spree/api/v1/documents",
		"expiryDate": "Wed Mar 26 2014 00:00:00 GMT+0000 (GMT)",
		"producer_id": "56"
	    }
	},
	"certificates": [{
	    "type": "Responsible Fishing Scheme",
	    "file": {
		"id": 124,
		"user_id": null,
		"producer_id": 56,
		"keeper_id": 0,
		"properties": {
		    "key": "producer/documents/1a3e038f-4e9f-4e6e-a9fb-0fa93936d694/Scan.jpeg",
		    "etag": "\"04a5a5013aa1ff1694d5bb553abe5bef\"",
		    "name": "Scan.jpeg",
		    "uuid": "1a3e038f-4e9f-4e6e-a9fb-0fa93936d694",
		    "action": "create",
		    "bucket": "farmdrop-v4-api-staging",
		    "format": "json",
		    "keeper_id": "null",
		    "controller": "spree/api/v1/documents",
		    "expiryDate": "Tue Mar 25 2014 00:00:00 GMT+0000 (GMT)",
		    "producer_id": "56"
		}
	    }
	}]
    },
    "business_details_step": 6,
    "business_details_status": "complete",
    "financial_details": {
	"user_type": "LEGAL",
	"user_data": {
	    "Name": "Cowper Burgers",
	    "LegalPersonType": "BUSINESS",
	    "LegalRepresentativeFirstName": "Myles",
	    "LegalRepresentativeLastName": "Cowper-Coles",
	    "Email": "mylescc@gmail.com",
	    "jsLegalRepresentativeBirthday": "2014-03-26T00:00:00.000Z",
	    "LegalRepresentativeBirthday": 1395792000000,
	    "LegalRepresentativeNationality": "ES",
	    "LegalRepresentativeCountryOfResidence": "AD"
	},
	"VAT": "445678945",
	"financialTypeCheck": "legal_business"
    },
    "financial_details_status": "complete"
}
