{
  "type":"object",
  "$schema": "http://json-schema.org/draft-03/schema",
  "id": "http://jsonschema.net",
  "required":false,
  "properties":{
    "min_orders": {
      "type":"number",
      "id": "http://jsonschema.net/properties/min_orders",
      "required":true
    },
    "producer_type": {
      "type":"string",
      "id": "http://jsonschema.net/properties/producer_type",
      "required":true
    },
    "properties": {
      "type":"object",
      "id": "http://jsonschema.net/properties",
      "required":true,
      "properties":{
        "delivery_cost": {
          "type":"number",
          "id": "http://jsonschema.net/properties/delivery_cost",
          "required":true
        },
        "proposed_drop_event_ids": {
          "type":"array",
          "id": "http://jsonschema.net/properties/proposed_drop_event_ids",
          "required":true,
          "items":
          {
            "type":"number",
            "id": "http://jsonschema.net/properties/proposed_drop_event_ids/0",
            "required":false
          }
        }
      }
    }
  }
}
