{
    "user": {
        "firstname": "1",
        "lastname": "pham2",
        "login_method": "normal",
        "bill_address_attributes": {
            "id": 72,
            "address1": "test2",
            "city": "NA",
            "phone": "07454881826",
            "country_id": 44,
            "zipcode": "n17su",
            "firstname": "liem",
            "lastname": "keeper",
            "coordinates": "POINT (-0.0881706000000122 51.5290255)"
        },
        "properties": {
            "company_name": "farmdrop"
        }
    }
}
